0.1952148310819258	-0.03265021118068726	0.09322467551128469	-0.0005444489477375718
0.18143552869377846	-0.0362093144438872	0.09405611771462159	0.002463367907315575
0.16828215580577113	-0.03797238337326077	0.09433290351852337	0.005249130751920648
0.15574108709052167	-0.03824750611358322	0.09411500650469046	0.00779839592602359
0.1437991406897725	-0.037313581891188385	0.09345776144585924	0.010102606249504875
0.13244352029798986	-0.035421600651618985	0.09241207653990052	0.012158598793364561
0.12166175724596451	-0.03279592269727754	0.09102464564391888	0.01396811265090737
0.11144165258441094	-0.029635558325076715	0.08933816050835094	0.015537296708927702
0.10177121916756755	-0.026115447464090034	0.08739152301106466	0.016876217418894758
0.0926386237367964	-0.02238773931320244	0.08522005739145802	0.017998366568137556
0.08403212900418282	-0.018583071978760822	0.08285572248455766	0.01892016905103001
0.07594003573613547	-0.014811852112224626	0.08032732395511782	0.019660490640175964
0.0683506248369861	-0.011165534547816484	0.07766072653171921	0.020240145757594256
0.06125209943258944	-0.007717901940172707	0.0748790662408678	0.020681405245903818
0.05463252695392301	-0.004526344401993992	0.07200296264109371	0.021007504139508717
0.048479781220686836	-0.0016331391416958484	0.06905073105704983	0.021242149435783165
0.04278148452490337	0.0009332698989406913	0.06603859481361078	0.021409027866256626
0.03752494971451739	0.003156992407118526	0.06298089746997178	0.021531313667798875
0.032697122276995706	0.005033412061373959	0.059890315053747395	0.02163117635380505
0.02828452242292708	0.006567906893926027	0.056778068295070365	0.021729288485380714
0.024273187169622026	0.007774569653025963	0.053654134860690456	0.02184433344252689
0.02064861242471258	0.008674928165306621	0.05052746158807321	0.021992513195325164
0.017395695069752252	0.00929666569813189	0.04740617671949885	0.022187056075122693
0.014498675043815775	0.009672341321946097	0.04429780213616108	0.022437724545717328
0.011941077427098927	0.009838110272623412	0.041209465592265876	0.0227503229745426
0.009705654524518431	0.009832444313817315	0.038148112949130314	0.023126205403852833
0.007774327949311706	0.00969485209930997	0.03512072040928142	0.023561783321908197
0.006128130706636777	0.009464599535361653	0.032134506750555	0.024048033434159746
0.004747149277172029	0.009179430143060174	0.029197145560194412	0.024570005434434477
0.003610465700716085	0.008874285420670302	0.026316977468949385	0.025106329776120418
0.0026960996597876403	0.008580025205983161	0.023503222385174927	0.02562872544335166
0.001980950563225259	0.008322148038665659	0.020766191728930034	0.02610150772219344
0.0014407396297872414	0.00811951152260992	0.018117500666076612	0.026481095971827167
0.001049951971751427	0.007983052688282673	0.015570280342378217	0.02671552139573551
0.0007817786785150459	0.007914508355074693	0.013139390117598937	0.026743934812887445
0.000608058900194535	0.007905135493650208	0.010841629799602175	0.026496114428923325
0.0004992219312253799	0.00793443158829632	0.00869595187844948	0.025891973607339934
0.0004242292939619359	0.007968854999272405	0.006723673760499368	0.02484106864067551
0.000350516822277269	0.007960545325159572	0.004948690002506193	0.023242106521694894
0.00024393674516297748	0.007846043765210026	0.003397684545718875	0.020982452714574475
6.869977032903166e-5	0.007545013481696539	0.002100342949979784	0.017937638926087365
-0.00021268283219640148	0.006958959962261828	0.0010895646278235524	0.01397087087678835
-0.00063945714646713	0.005969951382267983	0.0004016750785758882	0.008932536072198991
-0.0012526845270190911	0.004439338967145911	7.663812245241374e-5	0.0026597115739927946
-0.0020952995152705377	0.002206477354744706	0.00015826813465745843	-0.005024328228819934
