0.0
0.007385909090909093
0.014771818181818186
0.02215772727272728
0.029543636363636373
0.036929545454545465
0.04431545454545456
0.05170136363636365
0.059087272727272745
0.06647318181818183
0.07385909090909093
0.08124500000000003
0.08863090909090912
0.09601681818181822
0.1034027272727273
0.1107886363636364
0.11817454545454549
0.1255604545454546
0.13294636363636367
0.14033227272727278
0.14771818181818186
0.15510409090909097
0.16249000000000005
0.16987590909090913
0.17726181818181824
0.18464772727272732
0.19203363636363643
0.19941954545454552
0.2068054545454546
0.2141913636363637
0.2215772727272728
0.2289631818181819
0.23634909090909098
0.2437350000000001
0.2511209090909092
0.25850681818181825
0.26589272727272734
0.2732786363636365
0.28066454545454556
0.28805045454545464
0.2954363636363637
0.3028222727272728
0.31020818181818194
0.317594090909091
0.3249800000000001
